<?xml version="1.0" standalone="no"?><!DOCTYPE svg PUBLIC "-//W3C//DTD SVG 1.1//EN" "http://www.w3.org/Graphics/SVG/1.1/DTD/svg11.dtd"><svg t="1559098865752" class="icon" style="" viewBox="0 0 1228 1024" version="1.1" xmlns="http://www.w3.org/2000/svg" p-id="20858" xmlns:xlink="http://www.w3.org/1999/xlink" width="38.375" height="32">
<defs>
   
<linearGradient id="linear"  x1="0%" y1="0%" x2="0%" y2="100%">
        <stop offset="0%" stop-color="#dbfbff" />
        <stop offset="100%" stop-color="#66e7f7" />
      </linearGradient>
</defs>
<path fill="url(#linear)" d="M1182.856533 5.870933c32.494933-15.701333 52.6336 1.911467 43.895467 31.402667l-220.433067 799.5392c-7.509333 27.170133-29.149867 37.546667-50.312533 31.5392-21.162667-6.007467-395.4688-115.9168-395.4688-115.9168-22.1184-6.7584-29.422933-30.583467-12.288-49.3568l395.946667-443.528533-540.535467 435.541333c-9.352533 7.509333-19.319467 7.509333-29.354667 4.9152 0 0-293.819733-84.1728-341.742933-98.304-47.9232-14.062933-36.932267-50.107733-5.461333-64.648533 31.470933-14.5408 1155.754667-531.114667 1155.754666-531.114667zM632.354133 846.0288c15.018667 4.5056 17.6128 17.885867 10.376534 27.8528L536.576 1011.712c-16.042667 20.753067-35.771733 12.151467-35.771733-4.096v-174.421333c0-13.312 10.581333-20.616533 22.869333-17.066667l108.7488 29.832533z" p-id="20859"></path></svg>