<?xml version="1.0" standalone="no"?><!DOCTYPE svg PUBLIC "-//W3C//DTD SVG 1.1//EN" "http://www.w3.org/Graphics/SVG/1.1/DTD/svg11.dtd"><svg t="1558948239156" class="icon" style="" viewBox="0 0 1024 1024" version="1.1" xmlns="http://www.w3.org/2000/svg" p-id="48275" xmlns:xlink="http://www.w3.org/1999/xlink" width="32" height="32">
<defs>
  <linearGradient id="linear"  x1="0%" y1="0%" x2="0%" y2="100%">
    <stop offset="0%" stop-color="#9481fe" />
    <stop offset="100%" stop-color="#594d9d" />
  </linearGradient>
</defs>
<path fill="url(#linear)" d="M194.97 566.272V747.52L512 919.552 829.03 747.52V566.477L512 738.509 194.97 566.272zM512 104.448L13.926 376.218 512 647.782l407.552-221.798v312.525h90.522V376.218L512 104.448z" p-id="48276"></path></svg>